{
    "name": "Lambda Function",
    "image": "rust:latest",
    "forwardPorts": [8080],
    "settings": { 
        "terminal.integrated.shell.linux": "/bin/bash"
    },
    "extensions": [
        "rust-lang.rust"
    ],
    "postCreateCommand": "cargo build",
    "workspaceFolder": "/workspace",
    "mounts": ["source=${localWorkspaceFolder},target=/workspace,type=bind,consistency=cached"]
}